%YAML 1.1
%TAG !u! tag:unity3d.com,2011:
--- !u!292 &1
UnityAdsSettings:
  m_ObjectHideFlags: 0
  m_Enabled: 0
  m_InitializeOnStartup: 1
  m_TestMode: 0
  m_EnabledPlatforms: 4294967295
  m_IosGameId: 1000600
  m_AndroidGameId: 1000599
